<?xml version="1.0" encoding="UTF-8" standalone="no"?>
<!-- Created with Inkscape (http://www.inkscape.org/) -->

<svg
   width="500.0px"
   height="500.0px"
   viewBox="0 0 500.0 500.0"
   version="1.1"
   id="SVGRoot"
   sodipodi:docname="resol-ikona.svg"
   inkscape:version="1.2.1 (9c6d41e410, 2022-07-14, custom)"
   inkscape:export-filename="resol-ikona.png"
   inkscape:export-xdpi="96"
   inkscape:export-ydpi="96"
   xmlns:inkscape="http://www.inkscape.org/namespaces/inkscape"
   xmlns:sodipodi="http://sodipodi.sourceforge.net/DTD/sodipodi-0.dtd"
   xmlns="http://www.w3.org/2000/svg"
   xmlns:svg="http://www.w3.org/2000/svg"
   xmlns:rdf="http://www.w3.org/1999/02/22-rdf-syntax-ns#"
   xmlns:cc="http://creativecommons.org/ns#">
  <sodipodi:namedview
     id="namedview103"
     pagecolor="#ffffff"
     bordercolor="#000000"
     borderopacity="0.25"
     inkscape:showpageshadow="2"
     inkscape:pageopacity="0.0"
     inkscape:pagecheckerboard="0"
     inkscape:deskcolor="#d1d1d1"
     inkscape:document-units="px"
     showgrid="true"
     inkscape:zoom="0.5"
     inkscape:cx="124"
     inkscape:cy="66"
     inkscape:window-width="1366"
     inkscape:window-height="748"
     inkscape:window-x="0"
     inkscape:window-y="20"
     inkscape:window-maximized="1"
     inkscape:current-layer="layer1"
     showguides="true">
    <inkscape:grid
       type="xygrid"
       id="grid109" />
  </sodipodi:namedview>
  <defs
     id="defs98" />
  <g
     inkscape:label="Layer 1"
     inkscape:groupmode="layer"
     id="layer1">
    <circle
       style="fill:#5fddda;stroke:#000000;fill-opacity:1"
       id="path5093"
       cx="243.04965"
       cy="249.59692"
       r="218.32782" />
    <path
       style="opacity:1;fill:none;fill-opacity:1;stroke:#000000;stroke-width:6.21423;stroke-dasharray:none;stroke-opacity:1"
       d="M 118.8591,235.52091 V 372.54723 H 379.56142 V 235.65994 h 18.16943 L 249.39358,104.77592 100.45007,235.05873 Z"
       id="path4819" />
    <text
       xml:space="preserve"
       style="font-size:283.483px;fill:none;fill-opacity:1;stroke:#000000;stroke-width:2.07434;stroke-dasharray:none;stroke-opacity:1"
       x="136.6133"
       y="375.95737"
       id="text4883"
       transform="scale(1.065231,0.93876351)"><tspan
         sodipodi:role="line"
         id="tspan4881"
         x="136.6133"
         y="375.95737"
         style="fill:none;stroke-width:2.07434;stroke-dasharray:none">#</tspan></text>
  </g>
  <metadata
     id="metadata1408">
    <rdf:RDF>
      <cc:Work
         rdf:about="">
        <cc:license
           rdf:resource="https://www.gnu.org/licenses/gpl-3.0.txt" />
      </cc:Work>
    </rdf:RDF>
  </metadata>
</svg>
